{
  "RIDE": {
    "TIMEFARE": "multiply(TRAVELPERSEC, FAREPERSEC)",
    "INTERCITYPICKUPTIMEFARE": "multiply(PICKUPTIMEPERSEC, PICKUPFAREPERSEC)",
    "DISTANCEFARE": "multiply(TRAVELPERMETER, FAREPERMETER)",
    "INTERCITYPICKUPDISTANCEFARE": "multiply(PICKUPDISTANCEPERMETER, PICKUPFAREPERMETER)",
    "BASICFARE": "sum(BASEFARE, sum(TOTALDISTANCEFARE, TOTALTIMEFARE))",
    "ONLYPEAKFARE": "sum(BASEFARE, sum(TOTALDISTANCEFARE, TOTALTIMEFARE), multiply(sum(TOTALDISTANCEFARE, TOTALTIMEFARE), PEAKFEE))",
    "ONLYNIGHTGFARE": "sum(BASEFARE, sum(TOTALDISTANCEFARE, TOTALTIMEFARE), multiply(sum(TOTALDISTANCEFARE, TOTALTIMEFARE), NIGHTFEE))",
    "PEAKANDNIGHTFARE": "sum(BASEFARE, sum(TOTALDISTANCEFARE, TOTALTIMEFARE), multiply(sum(TOTALDISTANCEFARE, TOTALTIMEFARE), PEAKFEE), multiply(sum(TOTALDISTANCEFARE, TOTALTIMEFARE), NIGHTFEE))",
    "PEAKFARECHARGE": "multiply(sum(TOTALDISTANCEFARE, TOTALTIMEFARE), PEAKFEE)",
    "NIGHTGFARECHARGE": "multiply(sum(TOTALDISTANCEFARE, TOTALTIMEFARE), NIGHTFEE)"
  },
  "RENTAL": {
    "BASICFARE": "sum(BASEFARE, sum(sum(multiply(TRAVELPERSEC, FAREPERSEC), multiply(TRAVELPERMETER, FAREPERMETER),sum(multiply(EXTRATRAVELPERSEC, EXTRAFAREPERSEC), multiply(EXTRATRAVELPERMETER, EXTRAFAREPERMETER))))"
  }
}
